IS415-GAA - Hands-On Exercise 2 : Thematic Mapping and GeoVisualisation with R
…
What is aspatial/attribute data?

It is data that’s not related to shape/location or coordinates but provides more context to the data. For example, if the data is about Airbnb, it tells you the number of rooms, the pricing, the number of people living in each Airbnb house.

Let’s import it:

popdata <- read_csv("data/aspatial/respopagesextod2011to2020.csv")

Now, let’s view it:

list(popdata) 

[[1]]
# A tibble: 984,656 × 7
   PA         SZ                     AG     Sex     TOD                Pop  Time
   <chr>      <chr>                  <chr>  <chr>   <chr>            <dbl> <dbl>
 1 Ang Mo Kio Ang Mo Kio Town Centre 0_to_4 Males   HDB 1- and 2-Ro…     0  2011
 2 Ang Mo Kio Ang Mo Kio Town Centre 0_to_4 Males   HDB 3-Room Flats    10  2011
 3 Ang Mo Kio Ang Mo Kio Town Centre 0_to_4 Males   HDB 4-Room Flats    30  2011
 4 Ang Mo Kio Ang Mo Kio Town Centre 0_to_4 Males   HDB 5-Room and …    50  2011
 5 Ang Mo Kio Ang Mo Kio Town Centre 0_to_4 Males   HUDC Flats (exc…     0  2011
 6 Ang Mo Kio Ang Mo Kio Town Centre 0_to_4 Males   Landed Properti…     0  2011
 7 Ang Mo Kio Ang Mo Kio Town Centre 0_to_4 Males   Condominiums an…    40  2011
 8 Ang Mo Kio Ang Mo Kio Town Centre 0_to_4 Males   Others               0  2011
 9 Ang Mo Kio Ang Mo Kio Town Centre 0_to_4 Females HDB 1- and 2-Ro…     0  2011
10 Ang Mo Kio Ang Mo Kio Town Centre 0_to_4 Females HDB 3-Room Flats    10  2011
# ℹ 984,646 more rows
…
