IS415-GAA - Take-home Exercise 2: Application of Spatial and Spatio-temporal Analysis Methods to Discover the Distribution of Dengue Fever in Tainan City, Taiwan
…
Now we are calculating the Local GI* Statistic

HCSA <- wm_idw %>% 
  mutate(local_Gi = local_gstar_perm(
    incidents, nb, wt, nsim = 99),
         .before = 1) %>%
  unnest(local_Gi)
HCSA

Simple feature collection with 257 features and 22 fields
Geometry type: POLYGON
Dimension:     XY
Bounding box:  xmin: 120.0627 ymin: 22.89401 xmax: 120.2925 ymax: 23.09144
Geodetic CRS:  TWD97
# A tibble: 257 × 23
   gi_star cluster    e_gi    var_gi std_dev p_value p_sim p_folded_sim skewness
     <dbl> <fct>     <dbl>     <dbl>   <dbl>   <dbl> <dbl>        <dbl>    <dbl>
 1  -2.35  Low     0.00295   1.95e-6 -1.93   0.0535   0.02         0.01   0.417 
 2  -2.07  Low     0.00334   1.39e-6 -1.73   0.0831   0.04         0.02   1.08  
 3   0.369 High    0.00424   9.47e-7  0.0302 0.976    0.98         0.49   0.319 
 4   0.366 Low     0.00362   1.38e-6  0.591  0.555    0.58         0.29   0.487 
 5  -2.65  Low     0.00292   1.01e-6 -2.68   0.00742  0.02         0.01   0.870 
 6  -3.17  Low     0.00351   1.18e-6 -3.03   0.00242  0.02         0.01  -0.0143
 7  -1.25  Low     0.00342   1.60e-6 -0.983  0.325    0.32         0.16   0.650 
 8  -0.277 Low     0.00386   8.08e-7 -0.244  0.807    0.88         0.44   0.434 
 9   1.53  High    0.00438   1.42e-6  1.21   0.228    0.32         0.16   0.501 
10  -1.47  Low     0.00398   1.30e-6 -1.57   0.117    0.1          0.05   0.396 
# ℹ 247 more rows
# ℹ 14 more variables: kurtosis <dbl>, nb <nb>, wts <list>, VILLCODE <chr>,
#   COUNTYNAME <chr>, TOWNNAME <chr>, VILLNAME <chr>, VILLENG <chr>,
#   COUNTYID <chr>, COUNTYCODE <chr>, TOWNID <chr>, TOWNCODE <chr>,
#   incidents <int>, geometry <POLYGON [°]>
…
