IS415-GAA - Take-home Exercise 1 : Application of Spatial Point Patterns Analysis to discover the geographical distribution of Grab hailing services in Singapore
…
carsOriginInNorth <- st_intersection(grabOrigin, north)

carsOriginInNorth <- st_intersection(grabOrigin, north)

Let’s get the number now

carsOriginInNorth

Simple feature collection with 4547 features and 16 fields
Geometry type: POINT
Dimension:     XY
Bounding box:  xmin: 13681.67 ymin: 35382.98 xmax: 31339.97 ymax: 49685.08
Projected CRS: SVY21 / Singapore TM
# A tibble: 4,547 × 17
   trj_id driving_mode osname pingtimestamp       speed bearing accuracy weekday
 * <chr>  <chr>        <chr>  <dttm>              <dbl>   <int>    <dbl> <ord>  
 1 14555  car          ios    2019-04-10 09:15:04 10.6      107     10   Wed    
 2 79752  car          ios    2019-04-10 10:17:35  7.52      99      6   Wed    
 3 77697  car          ios    2019-04-11 04:44:09  2.12     143     12   Thu    
 4 10587  car          ios    2019-04-11 10:23:59  6.42     101      8   Thu    
 5 45173  car          andro… 2019-04-11 13:08:29 12.0       85      3.9 Thu    
 6 76870  car          ios    2019-04-12 06:19:28  7.31      96      6   Fri    
 7 79546  car          andro… 2019-04-12 07:22:33 17.0       83      3.9 Fri    
 8 66711  car          ios    2019-04-12 08:10:38 18.3       12      8   Fri    
 9 35891  car          ios    2019-04-13 03:35:23  2.71     354      5   Sat    
10 76149  car          andro… 2019-04-13 10:05:54 17.6       86      3.9 Sat    
# ℹ 4,537 more rows
# ℹ 9 more variables: start_hr <fct>, day <fct>, SUBZONE_N <chr>,
#   SUBZONE_C <chr>, PLN_AREA_N <chr>, PLN_AREA_C <chr>, REGION_N <chr>,
#   REGION_C <chr>, geometry <POINT [m]>
…
Now, let’s see the number of cars arriving to the north:

carsDestInNorth <- st_intersection(destination_df, north)

Let’s get the number now:

carsDestInNorth

Simple feature collection with 4242 features and 16 fields
Geometry type: POINT
Dimension:     XY
Bounding box:  xmin: 13369.5 ymin: 35350.07 xmax: 31403.56 ymax: 49469.41
Projected CRS: SVY21 / Singapore TM
# A tibble: 4,242 × 17
   trj_id driving_mode osname pingtimestamp       speed bearing accuracy weekday
 * <chr>  <chr>        <chr>  <dttm>              <dbl>   <int>    <dbl> <ord>  
 1 69056  car          andro… 2019-04-21 05:02:36 13.2      348      3.9 Sun    
 2 49387  car          ios    2019-04-21 04:21:53  4.07     283      8   Sun    
 3 47116  car          ios    2019-04-20 10:42:37 14.4      280     10   Sat    
 4 68012  car          andro… 2019-04-20 08:27:09 14.2      266      5   Sat    
 5 10894  car          andro… 2019-04-18 11:50:43  0          0      3   Thu    
 6 74071  car          andro… 2019-04-18 10:58:28 15.7      348      3.9 Thu    
 7 9325   car          ios    2019-04-15 02:47:36  7.37     349      5   Mon    
 8 80203  car          andro… 2019-04-11 18:29:44 17.3        3      4   Thu    
 9 76951  car          ios    2019-04-21 23:47:07 10.3       26      6   Sun    
10 19847  car          andro… 2019-04-21 23:40:18  8.20      26     11   Sun    
# ℹ 4,232 more rows
# ℹ 9 more variables: end_hr <fct>, day <fct>, SUBZONE_N <chr>,
#   SUBZONE_C <chr>, PLN_AREA_N <chr>, PLN_AREA_C <chr>, REGION_N <chr>,
#   REGION_C <chr>, geometry <POINT [m]>
…
